%YAML 1.1
%TAG !u! tag:unity3d.com,2011:
--- !u!221 &22100000
AnimatorOverrideController:
  m_ObjectHideFlags: 0
  m_PrefabParentObject: {fileID: 0}
  m_PrefabInternal: {fileID: 0}
  m_Name: Enemy Strong
  m_Controller: {fileID: 9100000, guid: 8b4c3988f8e1e5242b45b5b1065dd6ec, type: 2}
  m_Clips:
  - m_OriginalClip: {fileID: 7400000, guid: 50778d3605e8cb04aa01e4c92f8bc4be, type: 2}
    m_OverrideClip: {fileID: 7400000, guid: b9946f5eeeee81140b4443f657fb0be9, type: 2}
  - m_OriginalClip: {fileID: 7400000, guid: 0ce2b3064ed4e0a4ca509919e9d5ac75, type: 2}
    m_OverrideClip: {fileID: 7400000, guid: a092a1d971e58ea4d999f4afd0960cba, type: 2}
